Visualising inflation in the USA (2019-2024)
…
    expenditure_category = str_replace_all(expenditure_category,
                                           "New and used motor vehicles",
                                           "Vehicles")
  ) |>
  mutate(
    expenditure_category = str_replace_all(
      expenditure_category,
      "Meats, poultry, fish, and eggs",
      "Meat and Eggs"
    )
  )
# Display data after filtering
filtered_data

# A tibble: 343 × 4
   expenditure_category percent_change year  month
   <chr>                         <dbl> <chr> <chr>
 1 "All items"                     2.5 2020  01   
 2 "Meat and Eggs"                 1.9 2020  01   
 3 "Gasoline "                    12.8 2020  01   
 4 "Apparel"                      -1.3 2020  01   
 5 "Shelter"                       3.3 2020  01   
 6 "Airline fares"                 2.7 2020  01   
 7 "Vehicles"                     -1.1 2020  01   
 8 "All items"                     2.3 2020  02   
 9 "Meat and Eggs"                 1.9 2020  02   
10 "Gasoline "                     5.6 2020  02   
# ℹ 333 more rows
…
# Merge filtered CPI data and energy data
merged_data <- bind_rows(filtered_data, energy_data)
# Display the data after merging with electricity category
merged_data

# A tibble: 392 × 4
   expenditure_category percent_change year  month
   <chr>                         <dbl> <chr> <chr>
 1 "All items"                     2.5 2020  01   
 2 "Meat and Eggs"                 1.9 2020  01   
 3 "Gasoline "                    12.8 2020  01   
 4 "Apparel"                      -1.3 2020  01   
 5 "Shelter"                       3.3 2020  01   
 6 "Airline fares"                 2.7 2020  01   
 7 "Vehicles"                     -1.1 2020  01   
 8 "All items"                     2.3 2020  02   
 9 "Meat and Eggs"                 1.9 2020  02   
10 "Gasoline "                     5.6 2020  02   
# ℹ 382 more rows
…
# merge year and month into date, rename percent_change to inflation_rate
long_data <- merged_data %>%
  unite(date, year, month, sep = "/") %>%
  rename(inflation_rate = percent_change)

# Wrap long expenditure category labels
long_data$expenditure_category <- str_wrap(long_data$expenditure_category,
                                           width = 20)

# Save the csv
write_csv(long_data, "data/merged/inflation_data.csv")
# Display data after pivoting to long format
long_data

# A tibble: 392 × 3
   expenditure_category inflation_rate date   
   <chr>                         <dbl> <chr>  
 1 All items                       2.5 2020/01
 2 Meat and Eggs                   1.9 2020/01
 3 Gasoline                       12.8 2020/01
 4 Apparel                        -1.3 2020/01
 5 Shelter                         3.3 2020/01
 6 Airline fares                   2.7 2020/01
 7 Vehicles                       -1.1 2020/01
 8 All items                       2.3 2020/02
 9 Meat and Eggs                   1.9 2020/02
10 Gasoline                        5.6 2020/02
# ℹ 382 more rows
…
# Save the csv
write_csv(covid_data, "data/merged/covid_data.csv")
# Display covid data
covid_data

# A tibble: 49 × 2
   month   total_cases
   <fct>         <dbl>
 1 2020/01 0.000000320
 2 2020/02 0.00000151 
 3 2020/03 0.00577    
 4 2020/04 0.0364     
 5 2020/05 0.0394     
 6 2020/06 0.0338     
 7 2020/07 0.0763     
 8 2020/08 0.0814     
 9 2020/09 0.0515     
10 2020/10 0.0672     
# ℹ 39 more rows
…
