inflation_vis
…
covid_data <- covid_data |>
  filter(Country == "United States of America") |>
  select(Date_reported, New_cases) |>
  mutate(Date_reported = as.Date(Date_reported)) |>
  group_by(month = floor_date(Date_reported, "month")) |>
  summarise(total_cases = sum(New_cases, na.rm = TRUE)) |>
  mutate(prev_year_cases = lag(total_cases, n = 12),     
         pct_change = (total_cases - prev_year_cases) / prev_year_cases * 100) |>
  mutate(month = format(month, "%Y/%m")) |>
  # Normalize the pct_change values
  mutate(pct_change = (pct_change - min(pct_change, na.rm = TRUE)) / (max(pct_change, na.rm = TRUE) - min(pct_change, na.rm =TRUE)))

print(long_data)

# A tibble: 504 × 3
   expenditure_category date    inflation_rate
   <chr>                <chr>            <dbl>
 1 All items            2019/01            1.6
 2 All items            2019/02            1.5
 3 All items            2019/03            1.9
 4 All items            2019/04            2  
 5 All items            2019/05            1.8
 6 All items            2019/06            1.6
 7 All items            2019/07            1.8
 8 All items            2019/08            1.7
 9 All items            2019/09            1.7
10 All items            2019/10            1.8
# ℹ 494 more rows

print(covid_data)

# A tibble: 54 × 4
   month   total_cases prev_year_cases pct_change
   <chr>         <dbl>           <dbl>      <dbl>
 1 2020/01           7              NA         NA
 2 2020/02          33              NA         NA
 3 2020/03      126269              NA         NA
 4 2020/04      796638              NA         NA
 5 2020/05      862475              NA         NA
 6 2020/06      739955              NA         NA
 7 2020/07     1668539              NA         NA
 8 2020/08     1780555              NA         NA
 9 2020/09     1126625              NA         NA
10 2020/10     1469669              NA         NA
# ℹ 44 more rows
…
